<?xml version="1.0" standalone="no"?>
<!DOCTYPE svg PUBLIC "-//W3C//DTD SVG 20010904//EN"
 "http://www.w3.org/TR/2001/REC-SVG-20010904/DTD/svg10.dtd">
<svg version="1.0" xmlns="http://www.w3.org/2000/svg"
 width="512.000000pt" height="512.000000pt" viewBox="0 0 512.000000 512.000000"
 preserveAspectRatio="xMidYMid meet">
<metadata>
Created by potrace 1.14, written by Peter Selinger 2001-2017
</metadata>
<g transform="translate(0.000000,512.000000) scale(0.100000,-0.100000)"
fill="#000000" stroke="none">
<path d="M1627 5114 c-1 -1 -36 -4 -77 -7 -362 -27 -610 -181 -721 -445 -60
-144 -77 -306 -84 -772 -5 -330 -12 -439 -41 -577 -37 -183 -97 -281 -212
-350 -52 -31 -131 -61 -180 -69 -20 -4 -44 -8 -52 -9 -8 -2 -34 -4 -57 -4
l-42 -1 0 -320 0 -320 32 -1 c18 0 40 -2 49 -4 9 -2 35 -6 58 -9 152 -21 241
-78 320 -202 102 -162 116 -253 126 -849 2 -165 6 -313 8 -330 2 -16 6 -57 10
-90 39 -356 174 -561 436 -663 89 -34 157 -51 275 -68 22 -3 51 -8 65 -10 14
-3 118 -8 233 -11 l207 -6 1 24 c2 98 0 611 -3 613 -1 2 -59 6 -128 9 -148 7
-220 20 -275 48 -77 40 -125 121 -130 218 -2 31 -6 117 -9 191 -4 74 -9 167
-11 205 -2 39 -7 124 -10 190 -12 258 -19 330 -46 459 -49 240 -146 397 -332
537 -45 34 -82 65 -82 69 0 4 29 29 65 56 118 87 211 190 262 289 42 83 91
217 103 283 22 127 37 371 50 819 6 211 15 267 53 343 22 45 35 59 75 78 69
33 166 48 350 53 65 2 67 3 68 28 0 33 0 581 0 599 -1 10 -37 13 -176 11 -96
-2 -176 -3 -178 -5z"/>
<path d="M3139 5114 c-1 -12 -1 -539 0 -590 l1 -41 73 -2 c97 -2 206 -10 237
-17 14 -3 36 -8 49 -10 37 -7 78 -31 115 -69 54 -54 63 -124 81 -625 7 -204
15 -326 31 -479 29 -292 141 -494 364 -656 44 -33 80 -62 80 -65 0 -3 -28 -24
-63 -47 -121 -83 -215 -188 -279 -318 -31 -62 -76 -185 -83 -228 -3 -18 -8
-43 -10 -57 -12 -59 -14 -72 -19 -147 -15 -192 -21 -319 -31 -658 -5 -166 -9
-205 -31 -282 -37 -134 -144 -177 -451 -184 l-63 -1 -1 -32 c0 -17 -1 -161 -2
-319 l-2 -288 171 2 c316 5 474 29 629 97 128 56 227 138 301 250 105 157 130
318 139 872 5 310 10 400 31 535 11 73 47 191 73 244 37 71 114 144 194 181
67 32 184 60 247 60 l39 0 0 320 0 320 -27 1 c-15 0 -36 2 -47 3 -11 2 -43 6
-72 10 -65 9 -145 38 -195 71 -78 52 -171 199 -201 321 -27 103 -36 253 -42
669 -4 277 -6 306 -26 457 -57 434 -273 632 -759 693 -85 10 -450 18 -451 9z"/>
</g>
</svg>
